websiteurl,websiteurl,websiteurl,websiteurl,websiteurl,websiteurl,websiteurl,websiteurl,websiteurl,websiteurl,websiteurl,websiteurl,websiteurl,websiteurl,websiteurl,websiteurl,websiteurl,websiteurl,websiteurl,websiteurl,websiteurl,websiteurl,websiteurl,websiteurl
Hit1_websiteurl_Data,Hit1_websiteurl_Data,Hit1_websiteurl_Data,Hit1_websiteurl_Data,Hit1_websiteurl_Data,Hit1_websiteurl_Data,Hit1_websiteurl_Data,Hit1_websiteurl_Data,Hit1_websiteurl_Data,Hit1_websiteurl_Data,Hit1_websiteurl_Data,Hit1_websiteurl_Data,Hit1_websiteurl_Data,Hit1_websiteurl_Data,Hit1_websiteurl_Data,Hit1_websiteurl_Data,Hit1_websiteurl_Data,Hit1_websiteurl_Data,Hit1_websiteurl_Data,Hit1_websiteurl_Data,Hit1_websiteurl_Data,Hit1_websiteurl_Data,Hit1_websiteurl_Data,Hit1_websiteurl_Data
Hit2_websiteurl_Data,Hit2_websiteurl_Data,Hit2_websiteurl_Data,Hit2_websiteurl_Data,Hit2_websiteurl_Data,Hit2_websiteurl_Data,Hit2_websiteurl_Data,Hit2_websiteurl_Data,Hit2_websiteurl_Data,Hit2_websiteurl_Data,Hit2_websiteurl_Data,Hit2_websiteurl_Data,Hit2_websiteurl_Data,Hit2_websiteurl_Data,Hit2_websiteurl_Data,Hit2_websiteurl_Data,Hit2_websiteurl_Data,Hit2_websiteurl_Data,Hit2_websiteurl_Data,Hit2_websiteurl_Data,Hit2_websiteurl_Data,Hit2_websiteurl_Data,Hit2_websiteurl_Data,Hit2_websiteurl_Data
Hit3_websiteurl_Data,Hit3_websiteurl_Data,Hit3_websiteurl_Data,Hit3_websiteurl_Data,Hit3_websiteurl_Data,Hit3_websiteurl_Data,Hit3_websiteurl_Data,Hit3_websiteurl_Data,Hit3_websiteurl_Data,Hit3_websiteurl_Data,Hit3_websiteurl_Data,Hit3_websiteurl_Data,Hit3_websiteurl_Data,Hit3_websiteurl_Data,Hit3_websiteurl_Data,Hit3_websiteurl_Data,Hit3_websiteurl_Data,Hit3_websiteurl_Data,Hit3_websiteurl_Data,Hit3_websiteurl_Data,Hit3_websiteurl_Data,Hit3_websiteurl_Data,Hit3_websiteurl_Data,Hit3_websiteurl_Data
