website,website
Facebook.com,100ye.com
Twitter.com,163.com
Google.com,1and1.com
Youtube.com,1and1.fr
Linkedin.com,1und1.de
Wordpress.org,51.la
Instagram.com,A8.net
Pinterest.com,Abc.net.au
Wikipedia.org,About.com
Blogspot.com,About.me
Adobe.com,Addthis.com
Apple.com,Addtoany.com
Wordpress.com,Adition.com
Tumblr.com,Adobe.com
Sedo.com,Alibaba.com
Youtu.be,Amazon.co.jp
Sedoparking.com,Amazon.co.uk
Vimeo.com,Amazon.com
Amazon.com,Amazon.de
Godaddy.com,Amazonaws.com
Yahoo.com,Ameblo.jp
Flickr.com,Amzn.to
Goo.gl,Android.com
Microsoft.com,Aol.com
Bit.ly,Ap.org
Qq.com,Apache.org
Buydomains.com,Apple.com
Whoisprivacyprotect.com,Archive.org
W3.org,Ascii.co.uk
Nytimes.com,Baidu.com
Ascii.co.uk,Baiyewang.com
Vk.com,Bandcamp.com
Reddit.com,Barnesandnoble.com
Baidu.com,Bbb.org
T.co,Bbc.co.uk
Europa.eu,Bbc.com
Weebly.com,Behance.net
Bbc.co.uk,Beian.gov.cn
Statcounter.com,Berkeley.edu
Blogger.com,Bigcartel.com
Myspace.com,Bing.com
Yandex.ru,Bit.ly
Gov.uk,Bizjournals.com
Addthis.com,Blogger.com
Soundcloud.com,Blogspot.co.uk
Google.de,Blogspot.com
Parallels.com,Blogspot.com.es
Cnn.com,Blogspot.de
Networkadvertising.org,Bloomberg.com
Feedburner.com,Bluehost.com
Wix.com,Bola.net
Mozilla.org,Booking.com
Bluehost.com,Businessinsider.com
Github.com,Businessweek.com
Huffingtonpost.com,Businesswire.com
Issuu.com,Buydomains.com
Digg.com,Buzzfeed.com
Creativecommons.org,Ca.gov
Theguardian.com,Campaign-archive1.com
Stumbleupon.com,Campaign-archive2.com
Miibeian.gov.cn,Cbc.ca
Go.com,Cbslocal.com
Nih.gov,Cbsnews.com
Imdb.com,Cctv.com
Wsj.com,Cdc.gov
Forbes.com,Census.gov
Msn.com,Change.org
Jimdo.com,Chicagotribune.com
Paypal.com,Cloudfront.net
Ovh.net,Cnbc.com
Slideshare.net,Cnet.com
Weibo.com,Cnn.com
Dropbox.com,Columbia.edu
Washingtonpost.com,Constantcontact.com
Miitbeian.gov.cn,Cornell.edu
Wp.com,Cpanel.com
Google.co.jp,Cpanel.net
Amazonaws.com,Creativecommons.org
Eventbrite.com,Dailymail.co.uk
Typepad.com,Dailymotion.com
Telegraph.co.uk,Debian.org
Yelp.com,Delicious.com
Reuters.com,Detik.com
Sourceforge.net,Deviantart.com
Addtoany.com,Digg.com
Wixsite.com,Directdomains.com
Free.fr,Disqus.com
Archive.org,Doi.org
About.com,Domainactive.co
Ebay.com,Domainmarket.com
Domainactive.co,Domainname.de
Mail.ru,Domainname.ru
Dailymail.co.uk,Domainnameshop.com
Livejournal.com,Domeneshop.no
Etsy.com,Doubleclick.net
Usatoday.com,Dribbble.com
Google.co.uk,Dropbox.com
Aol.com,Ebay.com
Macromedia.com,Economist.com
Time.com,Ed.gov
Constantcontact.com,Eepurl.com
1und1.de,Elegantthemes.com
Ameblo.jp,Enable-javascript.com
E-recht24.de,Engadget.com
Amazon.co.uk,Epa.gov
Fc2.com,E-recht24.de
Latimes.com,Etsy.com
Eepurl.com,Europa.eu
Amazon.de,Eventbrite.com
Wikimedia.org,Facebook.com
Npr.org,Fastcompany.com
Harvard.edu,Fb.com
Surveymonkey.com,Fb.me
Bing.com,Fc2.com
Guardian.co.uk,Fda.gov
Bloomberg.com,Feedburner.com
Xing.com,Flickr.com
Domainmarket.com,Forbes.com
Taobao.com,Fortune.com
Yahoo.co.jp,Foursquare.com
Cdc.gov,Foxnews.com
Icio.us,Free.fr
Dailymotion.com,Ft.com
Secureserver.net,Geocities.com
Live.com,Geocities.jp
Mit.edu,Github.com
List-manage.com,Github.io
Rambler.ru,Gizmodo.com
Wired.com,Gnu.org
Stanford.edu,Go.com
51.la,Godaddy.com
Webs.com,Goo.gl
Blogspot.co.uk,Goodreads.com
Joomla.org,Google.ca
Cpanel.net,Google.co.jp
Hostnet.nl,Google.co.uk
Amzn.to,Google.com
Businessinsider.com,Google.com.au
Kickstarter.com,Google.de
Cnet.com,Google.es
Hatena.ne.jp,Google.fr
Nasa.gov,Google.it
163.com,Googleusercontent.com
Apache.org,Gov.uk
Bbb.org,Gravatar.com
Cpanel.com,Guardian.co.uk
Tripadvisor.com,Harvard.edu
Gnu.org,Hatena.ne.jp
Delicious.com,Hibu.com
Geocities.com,Hilton.com
Bandcamp.com,Histats.com
Bbc.com,Home.pl
Scribd.com,Homestead.com
Independent.co.uk,Hostnet.nl
Elegantthemes.com,House.gov
Photobucket.com,Hp.com
One.com,Huffingtonpost.com
Ted.com,Ibm.com
Domainname.de,Icio.us
Opera.com,Ifeng.com
Imgur.com,Imdb.com
Pbs.org,Imgur.com
Un.org,Independent.co.uk
Google.fr,Indiatimes.com
Disqus.com,Instagram.com
Tripod.com,Irs.gov
Mashable.com,Issuu.com
Amazon.co.jp,Jiathis.com
Googleusercontent.com,Jimdo.com
Ovh.com,Joomla.org
Ibm.com,Kickstarter.com
Cbsnews.com,Latimes.com
Who.int,Line.me
Behance.net,Linkedin.com
Wiley.com,Linksynergy.com
Deviantart.com,List-manage.com
Nationalgeographic.com,List-manage1.com
Whitehouse.gov,Live.com
Adition.com,Livedoor.jp
Berkeley.edu,Livejournal.com
Ca.gov,Loc.gov
Trustpilot.com,Loopia.com
Theatlantic.com,Loopia.se
Foxnews.com,Macromedia.com
Medium.com,Mail.ru
Barnesandnoble.com,Mailchimp.com
Techcrunch.com,Mapquest.com
Github.io,Marketwatch.com
Google.es,Marriott.com
Nature.com,Mashable.com
Namejet.com,Medium.com
Homestead.com,Meetup.com
Buzzfeed.com,Microsoft.com
Goodreads.com,Miibeian.gov.cn
Spotify.com,Miitbeian.gov.cn
Loopia.se,Mijndomein.nl
Rakuten.co.jp,Mit.edu
Cornell.edu,Mozilla.org
Google.it,Msn.com
Visma.com,Myshopify.com
Loopia.com,Myspace.com
Google.ca,Name.com
Gravatar.com,Namejet.com
Usda.gov,Nasa.gov
Sohu.com,Nationalgeographic.com
Ft.com,Nature.com
Networksolutions.com,Naver.com
Squarespace.com,Nbcnews.com
Sciencedirect.com,Networkadvertising.org
Mijndomein.nl,Networksolutions.com
Change.org,Newyorker.com
Epa.gov,Nhs.uk
Cbc.ca,Nic.tel
Blogspot.com.es,Nifty.com
Technorati.com,Nih.gov
Economist.com,Noaa.gov
Noaa.gov,Npr.org
Vkontakte.ru,Nps.gov
Blogspot.de,Nydailynews.com
Php.net,Nymag.com
Sakura.ne.jp,Nypost.com
Bizjournals.com,Nytimes.com
Ow.ly,Ocn.ne.jp
Sfgate.com,One.com
Loc.gov,Opera.com
Engadget.com,Oracle.com
Spiegel.de,Ovh.com
Springer.com,Ovh.net
Prnewswire.com,Ow.ly
Nps.gov,Ox.ac.uk
Xinhuanet.com,Parallels.com
Meetup.com,Paypal.com
Usnews.com,Pbs.org
Chicagotribune.com,People.com.cn
Ifeng.com,Photobucket.com
Newyorker.com,Php.net
Slate.com,Phpbb.com
Cbslocal.com,Pinterest.com
List-manage1.com,Prnewswire.com
Businessweek.com,Psu.edu
Abc.net.au,Qq.com
Wikia.com,Rakuten.co.jp
Detik.com,Rambler.ru
1and1.fr,Reddit.com
Webmd.com,Reuters.com
Nydailynews.com,Rs6.net
Hp.com,Sagepub.com
Directdomains.com,Sakura.ne.jp
Umich.edu,Samsung.com
Cnbc.com,Sciencedirect.com
Rs6.net,Sciencemag.org
About.me,Scribd.com
Marriott.com,Secureserver.net
Fda.gov,Sedo.com
Themeforest.net,Sedoparking.com
Wp.me,Senate.gov
Gizmodo.com,Sfgate.com
Cloudfront.net,Si.edu
House.gov,Skype.com
Google.com.au,Slate.com
Nbcnews.com,Slideshare.net
People.com.cn,Smh.com.au
Foursquare.com,Sogou.com
Yale.edu,Sohu.com
Myshopify.com,Soundcloud.com
State.gov,Sourceforge.net
Ustream.tv,Spiegel.de
Phpbb.com,Spotify.com
Umblr.com,Springer.com
Doubleclick.net,Squarespace.com
Wufoo.com,Stanford.edu
Columbia.edu,Statcounter.com
Unesco.org,State.gov
Ed.gov,Storify.com
Skype.com,Stumbleupon.com
Hibu.com,Surveymonkey.com
Sogou.com,T.co
Bigcartel.com,Taobao.com
Jiathis.com,Techcrunch.com
Upenn.edu,Technorati.com
Histats.com,Ted.com
Fb.me,Telegraph.co.uk
Vice.com,Theatlantic.com
Washington.edu,Theguardian.com
Nifty.com,Themeforest.net
Storify.com,Theverge.com
Mapquest.com,Time.com
Hilton.com,Tripadvisor.com
Name.com,Tripod.com
Businesswire.com,Trustpilot.com
Ocn.ne.jp,Tumblr.com
Beian.gov.cn,Twitter.com
Zdnet.com,Typepad.com
Senate.gov,Uk2.net
Line.me,Umblr.com
Domainnameshop.com,Umich.edu
Youku.com,Umn.edu
Geocities.jp,Un.org
Doi.org,Unesco.org
Booking.com,Upenn.edu
Naver.com,Usatoday.com
Smh.com.au,Usda.gov
Irs.gov,Usnews.com
Domeneshop.no,Ustream.tv
1and1.com,Utexas.edu
Livedoor.jp,Vice.com
Marketwatch.com,Vimeo.com
Theverge.com,Visma.com
Baiyewang.com,Vk.com
Umn.edu,Vkontakte.ru
Nypost.com,W3.org
Android.com,Washington.edu
100ye.com,Washingtonpost.com
Utexas.edu,Weather.com
Indiatimes.com,Webmd.com
Fastcompany.com,Webs.com
Weather.com,Weebly.com
Samsung.com,Weibo.com
Wisc.edu,Whitehouse.gov
Linksynergy.com,Who.int
Cctv.com,Whoisprivacyprotect.com
Psu.edu,Wikia.com
Alibaba.com,Wikimedia.org
Home.pl,Wikipedia.org
Fortune.com,Wiley.com
Nhs.uk,Wired.com
Ox.ac.uk,Wisc.edu
Domainname.ru,Wix.com
Xiti.com,Wixsite.com
Fb.com,Wordpress.com
Campaign-archive1.com,Wordpress.org
Oracle.com,Worldbank.org
A8.net,Wp.com
Ap.org,Wp.me
Campaign-archive2.com,Wsj.com
Uk2.net,Wufoo.com
Enable-javascript.com,Xing.com
Worldbank.org,Xinhuanet.com
Census.gov,Xiti.com
Nic.tel,Yahoo.co.jp
Sagepub.com,Yahoo.com
Sciencemag.org,Yale.edu
Bola.net,Yandex.ru
Si.edu,Yelp.com
Nymag.com,Youku.com
Debian.org,Youtu.be
Dribbble.com,Youtube.com
Mailchimp.com,Zdnet.com
