company name,location,website
Hit1_company name_Data,Hit1_location_Data,Hit1_website_Data
Hit2_company name_Data,Hit2_location_Data,Hit2_website_Data
Hit3_company name_Data,Hit3_location_Data,Hit3_website_Data
