image1,image2,image3,image4,image5,image6
https://requestersandbox.mturk.com/assets/placeholder_adspace-771ff004fe6342986402a6618e6bbf4e1e42665f37c6f021d56c6718e8b04105.png,Hit1_image2_Data,Hit1_image3_Data,Hit1_image4_Data,Hit1_image5_Data,Hit1_image6_Data
Hit2_image1_Data,Hit2_image2_Data,Hit2_image3_Data,Hit2_image4_Data,Hit2_image5_Data,https://requestersandbox.mturk.com/assets/placeholder_adspace-771ff004fe6342986402a6618e6bbf4e1e42665f37c6f021d56c6718e8b04105.png
Hit3_image1_Data,Hit3_image2_Data,Hit3_image3_Data,Hit3_image4_Data,Hit3_image5_Data,https://requestersandbox.mturk.com/assets/placeholder_adspace-771ff004fe6342986402a6618e6bbf4e1e42665f37c6f021d56c6718e8b04105.png
