company name,location,website
Vogotask,Bangalore,www.vogotask.com
Facebook,Menlo Park,www.facebook.com
Microsoft,Hydrabad,www.microsoft.com
Amazon,Hydrabad,www.amazon.in
Flipkart,Bangalore,www.flipkart.com
Snapdeal,Delhi,www.snapdeal.com
