imageurl,imageurlb
https://rukminim1.flixcart.com/image/312/312/j2c6du80/mobile/n/n/5/apple-iphone-se-mp852hn-a-original-imaetmazmydgutzf.jpeg?q=70,https://rukminim1.flixcart.com/image/312/312/j1qqs280/mobile/m/7/d/samsung-galaxy-on-nxt-sm-g610fzdhins-original-imaet97hmqvfn5a6.jpeg?q=70
https://rukminim1.flixcart.com/image/312/312/mobile/r/3/q/samsung-galaxy-on7-sm-g600f-original-imaecqkgzeuz9ebn.jpeg?q=70,https://rukminim1.flixcart.com/image/312/312/mobile/y/h/t/apple-iphone-6s-plus-mn2v2hn-a-original-imaen3f3xcrnm3ax.jpeg?q=70
https://rukminim1.flixcart.com/image/312/312/mobile/c/n/y/samsung-galaxy-on7-sm-g600f-original-imaecqkgfgtmaw2y.jpeg?q=70,https://rukminim1.flixcart.com/image/312/312/mobile/x/w/h/samsung-galaxy-on8-na-original-imaemrwgbbsytpxq.jpeg?q=70
https://rukminim1.flixcart.com/image/312/312/mobile/6/t/q/apple-iphone-6s-mn0w2hn-a-original-imaen3f3un3jcubq.jpeg?q=70,https://rukminim1.flixcart.com/image/312/312/mobile/7/e/e/apple-iphone-7-na-original-imaemzee435f9gpu.jpeg?q=70
https://rukminim1.flixcart.com/image/312/312/mobile/b/u/z/apple-iphone-7-na-original-imaemzeufk3cfuwz.jpeg?q=70,https://rukminim1.flixcart.com/image/312/312/mobile/a/x/f/apple-iphone-se-mlxq2hn-a-original-imaehk8jhgkmwgbv.jpeg?q=70
