image1,image1,image1,image1,image1,image1,image1,image1,image1
https://rukminim1.flixcart.com/merch/400/400/images/1493979438238.jpg?q=70,https://rukminim1.flixcart.com/merch/400/400/images/1493979438238.jpg?q=70,https://rukminim1.flixcart.com/merch/400/400/images/1493979438238.jpg?q=70,https://rukminim1.flixcart.com/merch/400/400/images/1493979438238.jpg?q=70,https://rukminim1.flixcart.com/merch/400/400/images/1484739230000.png?q=70,https://rukminim1.flixcart.com/merch/400/400/images/1484739230000.png?q=70,https://rukminim1.flixcart.com/merch/400/400/images/1484739230000.png?q=70,https://rukminim1.flixcart.com/merch/400/400/images/1484739230000.png?q=70,https://rukminim1.flixcart.com/merch/400/400/images/1484739230000.png?q=70
https://rukminim1.flixcart.com/merch/400/400/images/1493979438238.jpg?q=70,https://rukminim1.flixcart.com/merch/400/400/images/1493979438238.jpg?q=70,https://rukminim1.flixcart.com/merch/400/400/images/1493979438238.jpg?q=70,https://rukminim1.flixcart.com/merch/400/400/images/1493979438238.jpg?q=70,https://rukminim1.flixcart.com/merch/400/400/images/1484739230000.png?q=70,https://rukminim1.flixcart.com/merch/400/400/images/1484739230000.png?q=70,https://rukminim1.flixcart.com/merch/400/400/images/1484739230000.png?q=70,https://rukminim1.flixcart.com/merch/400/400/images/1484739230000.png?q=70,https://rukminim1.flixcart.com/merch/400/400/images/1484739230000.png?q=70
https://rukminim1.flixcart.com/merch/400/400/images/1493979438238.jpg?q=70,https://rukminim1.flixcart.com/merch/400/400/images/1493979438238.jpg?q=70,https://rukminim1.flixcart.com/merch/400/400/images/1493979438238.jpg?q=70,https://rukminim1.flixcart.com/merch/400/400/images/1493979438238.jpg?q=70,https://rukminim1.flixcart.com/merch/400/400/images/1484739230000.png?q=70,https://rukminim1.flixcart.com/merch/400/400/images/1484739230000.png?q=70,https://rukminim1.flixcart.com/merch/400/400/images/1484739230000.png?q=70,https://rukminim1.flixcart.com/merch/400/400/images/1484739230000.png?q=70,https://rukminim1.flixcart.com/merch/400/400/images/1484739230000.png?q=70
