company name,location,website
Hit1_company name_Data,Hit1_location_Data,Hit1_website_Data
Hit2_company name_Data,Hit2_location_Data,Hit2_website_Data
Hit3_company name_Data,Hit3_location_Data,Hit3_website_Data
india1,Bangalore1,www.googel.com1
india2,Bangalore2,www.googel.com2
india3,Bangalore3,www.googel.com3
india4,Bangalore4,www.googel.com4
india5,Bangalore5,www.googel.com5
india6,Bangalore6,www.googel.com6
india7,Bangalore7,www.googel.com7
india8,Bangalore8,www.googel.com8
india9,Bangalore9,www.googel.com9
india10,Bangalore10,www.googel.com10
india11,Bangalore11,www.googel.com11
india12,Bangalore12,www.googel.com12
india13,Bangalore13,www.googel.com13
