image1,image2,image3,image4,image5,image6,image7,image8,image9
https://rukminim1.flixcart.com/image/312/312/sari/h/r/v/1-1-nstasselmulti1-vastrakala-original-imaehhz8vmmdgyau.jpeg?q=70,https://rukminim1.flixcart.com/image/312/312/sari/h/p/x/free-bhagalpuri28-yetnik-original-imaepkyptxgmd6w2.jpeg?q=70,https://rukminim1.flixcart.com/image/312/312/sari/h/r/v/1-1-nstasselmulti1-vastrakala-original-imaehhz8vmmdgyau.jpeg?q=70,https://rukminim1.flixcart.com/image/312/312/j29bi4w0/t-shirt/4/y/g/m-ss17prm-fsvnkbtpt6-m-pln-dnbu-campus-sutra-original-imaetngyhr3gzcsp.jpeg?q=70,https://rukminim1.flixcart.com/image/312/312/fabric/v/g/n/dp0995-priyanshi-original-imaegj8htf6j4ykk.jpeg?q=70,https://rukminim1.flixcart.com/image/312/312/j2c6du80/fabric/z/b/z/dc792-1073-drapes-original-imaegr5jbxexqamz.jpeg?q=70,https://rukminim1.flixcart.com/image/312/312/j2f19jk0/sari/k/6/3/1-free-anjani-jackpot1153-c-oomph-1-original-imaegtgnwrhzpfmg.jpeg?q=70,https://rukminim1.flixcart.com/image/312/312/fabric/f/f/t/487d2004-saara-original-imaeqyupw45uvjtu.jpeg?q=70,https://rukminim1.flixcart.com/image/312/312/j3hm5jk0/fabric/e/c/s/dm00255-anugrah-original-imaeuh6qxtbchyxf.jpeg?q=70
https://rukminim1.flixcart.com/image/312/312/j2f19jk0/sari/k/6/3/1-free-anjani-jackpot1153-c-oomph-1-original-imaegtgnwrhzpfmg.jpeg?q=70,https://rukminim1.flixcart.com/image/312/312/t-shirt/n/7/e/fmts7793brick-red-flying-machine-m-original-imaepyymechk3drb.jpeg?q=70,https://rukminim1.flixcart.com/image/312/312/fabric/v/g/n/dp0995-priyanshi-original-imaegj8htf6j4ykk.jpeg?q=70,https://rukminim1.flixcart.com/image/312/312/j3hm5jk0/fabric/e/c/s/dm00255-anugrah-original-imaeuh6qxtbchyxf.jpeg?q=70,https://rukminim1.flixcart.com/image/312/312/sari/h/r/v/1-1-nstasselmulti1-vastrakala-original-imaehhz8vmmdgyau.jpeg?q=70,https://rukminim1.flixcart.com/image/312/312/fabric/f/f/t/487d2004-saara-original-imaeqyupw45uvjtu.jpeg?q=70,https://rukminim1.flixcart.com/image/312/312/j29bi4w0/t-shirt/4/y/g/m-ss17prm-fsvnkbtpt6-m-pln-dnbu-campus-sutra-original-imaetngyhr3gzcsp.jpeg?q=70,https://rukminim1.flixcart.com/image/312/312/j2c6du80/fabric/z/b/z/dc792-1073-drapes-original-imaegr5jbxexqamz.jpeg?q=70,https://rukminim1.flixcart.com/image/312/312/j2c6du80/fabric/y/6/h/dc792-994-drapes-original-imaegj8hfrz8yysq.jpeg?q=70
https://rukminim1.flixcart.com/image/312/312/t-shirt/n/7/e/fmts7793brick-red-flying-machine-m-original-imaepyymechk3drb.jpeg?q=70,https://rukminim1.flixcart.com/image/312/312/j2f19jk0/sari/k/6/3/1-free-anjani-jackpot1153-c-oomph-1-original-imaegtgnwrhzpfmg.jpeg?q=70,https://rukminim1.flixcart.com/image/312/312/sari/h/r/v/1-1-nstasselmulti1-vastrakala-original-imaehhz8vmmdgyau.jpeg?q=70,https://rukminim1.flixcart.com/image/312/312/j3hm5jk0/fabric/e/c/s/dm00255-anugrah-original-imaeuh6qxtbchyxf.jpeg?q=70,https://rukminim1.flixcart.com/image/312/312/fabric/v/g/n/dp0995-priyanshi-original-imaegj8htf6j4ykk.jpeg?q=70,https://rukminim1.flixcart.com/image/312/312/fabric/f/f/t/487d2004-saara-original-imaeqyupw45uvjtu.jpeg?q=70,https://rukminim1.flixcart.com/image/312/312/j29bi4w0/t-shirt/4/y/g/m-ss17prm-fsvnkbtpt6-m-pln-dnbu-campus-sutra-original-imaetngyhr3gzcsp.jpeg?q=70,https://rukminim1.flixcart.com/image/312/312/j2c6du80/fabric/y/6/h/dc792-994-drapes-original-imaegj8hfrz8yysq.jpeg?q=70,https://rukminim1.flixcart.com/image/312/312/j2c6du80/fabric/z/b/z/dc792-1073-drapes-original-imaegr5jbxexqamz.jpeg?q=70
https://rukminim1.flixcart.com/image/312/312/sari/h/r/v/1-1-nstasselmulti1-vastrakala-original-imaehhz8vmmdgyau.jpeg?q=70,https://rukminim1.flixcart.com/image/312/312/sari/h/p/x/free-bhagalpuri28-yetnik-original-imaepkyptxgmd6w2.jpeg?q=70,https://rukminim1.flixcart.com/image/312/312/sari/h/r/v/1-1-nstasselmulti1-vastrakala-original-imaehhz8vmmdgyau.jpeg?q=70,https://rukminim1.flixcart.com/image/312/312/j29bi4w0/t-shirt/4/y/g/m-ss17prm-fsvnkbtpt6-m-pln-dnbu-campus-sutra-original-imaetngyhr3gzcsp.jpeg?q=70,https://rukminim1.flixcart.com/image/312/312/fabric/v/g/n/dp0995-priyanshi-original-imaegj8htf6j4ykk.jpeg?q=70,https://rukminim1.flixcart.com/image/312/312/j2c6du80/fabric/z/b/z/dc792-1073-drapes-original-imaegr5jbxexqamz.jpeg?q=70,https://rukminim1.flixcart.com/image/312/312/j2f19jk0/sari/k/6/3/1-free-anjani-jackpot1153-c-oomph-1-original-imaegtgnwrhzpfmg.jpeg?q=70,https://rukminim1.flixcart.com/image/312/312/fabric/f/f/t/487d2004-saara-original-imaeqyupw45uvjtu.jpeg?q=70,https://rukminim1.flixcart.com/image/312/312/j3hm5jk0/fabric/e/c/s/dm00255-anugrah-original-imaeuh6qxtbchyxf.jpeg?q=70
https://rukminim1.flixcart.com/image/312/312/j2f19jk0/sari/k/6/3/1-free-anjani-jackpot1153-c-oomph-1-original-imaegtgnwrhzpfmg.jpeg?q=70,https://rukminim1.flixcart.com/image/312/312/t-shirt/n/7/e/fmts7793brick-red-flying-machine-m-original-imaepyymechk3drb.jpeg?q=70,https://rukminim1.flixcart.com/image/312/312/fabric/v/g/n/dp0995-priyanshi-original-imaegj8htf6j4ykk.jpeg?q=70,https://rukminim1.flixcart.com/image/312/312/j3hm5jk0/fabric/e/c/s/dm00255-anugrah-original-imaeuh6qxtbchyxf.jpeg?q=70,https://rukminim1.flixcart.com/image/312/312/sari/h/r/v/1-1-nstasselmulti1-vastrakala-original-imaehhz8vmmdgyau.jpeg?q=70,https://rukminim1.flixcart.com/image/312/312/fabric/f/f/t/487d2004-saara-original-imaeqyupw45uvjtu.jpeg?q=70,https://rukminim1.flixcart.com/image/312/312/j29bi4w0/t-shirt/4/y/g/m-ss17prm-fsvnkbtpt6-m-pln-dnbu-campus-sutra-original-imaetngyhr3gzcsp.jpeg?q=70,https://rukminim1.flixcart.com/image/312/312/j2c6du80/fabric/z/b/z/dc792-1073-drapes-original-imaegr5jbxexqamz.jpeg?q=70,https://rukminim1.flixcart.com/image/312/312/j2c6du80/fabric/y/6/h/dc792-994-drapes-original-imaegj8hfrz8yysq.jpeg?q=70
https://rukminim1.flixcart.com/image/312/312/t-shirt/n/7/e/fmts7793brick-red-flying-machine-m-original-imaepyymechk3drb.jpeg?q=70,https://rukminim1.flixcart.com/image/312/312/j2f19jk0/sari/k/6/3/1-free-anjani-jackpot1153-c-oomph-1-original-imaegtgnwrhzpfmg.jpeg?q=70,https://rukminim1.flixcart.com/image/312/312/sari/h/r/v/1-1-nstasselmulti1-vastrakala-original-imaehhz8vmmdgyau.jpeg?q=70,https://rukminim1.flixcart.com/image/312/312/j3hm5jk0/fabric/e/c/s/dm00255-anugrah-original-imaeuh6qxtbchyxf.jpeg?q=70,https://rukminim1.flixcart.com/image/312/312/fabric/v/g/n/dp0995-priyanshi-original-imaegj8htf6j4ykk.jpeg?q=70,https://rukminim1.flixcart.com/image/312/312/fabric/f/f/t/487d2004-saara-original-imaeqyupw45uvjtu.jpeg?q=70,https://rukminim1.flixcart.com/image/312/312/j29bi4w0/t-shirt/4/y/g/m-ss17prm-fsvnkbtpt6-m-pln-dnbu-campus-sutra-original-imaetngyhr3gzcsp.jpeg?q=70,https://rukminim1.flixcart.com/image/312/312/j2c6du80/fabric/y/6/h/dc792-994-drapes-original-imaegj8hfrz8yysq.jpeg?q=70,https://rukminim1.flixcart.com/image/312/312/j2c6du80/fabric/z/b/z/dc792-1073-drapes-original-imaegr5jbxexqamz.jpeg?q=70
https://rukminim1.flixcart.com/image/312/312/sari/h/r/v/1-1-nstasselmulti1-vastrakala-original-imaehhz8vmmdgyau.jpeg?q=70,https://rukminim1.flixcart.com/image/312/312/sari/h/p/x/free-bhagalpuri28-yetnik-original-imaepkyptxgmd6w2.jpeg?q=70,https://rukminim1.flixcart.com/image/312/312/sari/h/r/v/1-1-nstasselmulti1-vastrakala-original-imaehhz8vmmdgyau.jpeg?q=70,https://rukminim1.flixcart.com/image/312/312/j29bi4w0/t-shirt/4/y/g/m-ss17prm-fsvnkbtpt6-m-pln-dnbu-campus-sutra-original-imaetngyhr3gzcsp.jpeg?q=70,https://rukminim1.flixcart.com/image/312/312/fabric/v/g/n/dp0995-priyanshi-original-imaegj8htf6j4ykk.jpeg?q=70,https://rukminim1.flixcart.com/image/312/312/j2c6du80/fabric/z/b/z/dc792-1073-drapes-original-imaegr5jbxexqamz.jpeg?q=70,https://rukminim1.flixcart.com/image/312/312/j2f19jk0/sari/k/6/3/1-free-anjani-jackpot1153-c-oomph-1-original-imaegtgnwrhzpfmg.jpeg?q=70,https://rukminim1.flixcart.com/image/312/312/fabric/f/f/t/487d2004-saara-original-imaeqyupw45uvjtu.jpeg?q=70,https://rukminim1.flixcart.com/image/312/312/j3hm5jk0/fabric/e/c/s/dm00255-anugrah-original-imaeuh6qxtbchyxf.jpeg?q=70
https://rukminim1.flixcart.com/image/312/312/j2f19jk0/sari/k/6/3/1-free-anjani-jackpot1153-c-oomph-1-original-imaegtgnwrhzpfmg.jpeg?q=70,https://rukminim1.flixcart.com/image/312/312/t-shirt/n/7/e/fmts7793brick-red-flying-machine-m-original-imaepyymechk3drb.jpeg?q=70,https://rukminim1.flixcart.com/image/312/312/fabric/v/g/n/dp0995-priyanshi-original-imaegj8htf6j4ykk.jpeg?q=70,https://rukminim1.flixcart.com/image/312/312/j3hm5jk0/fabric/e/c/s/dm00255-anugrah-original-imaeuh6qxtbchyxf.jpeg?q=70,https://rukminim1.flixcart.com/image/312/312/sari/h/r/v/1-1-nstasselmulti1-vastrakala-original-imaehhz8vmmdgyau.jpeg?q=70,https://rukminim1.flixcart.com/image/312/312/fabric/f/f/t/487d2004-saara-original-imaeqyupw45uvjtu.jpeg?q=70,https://rukminim1.flixcart.com/image/312/312/j29bi4w0/t-shirt/4/y/g/m-ss17prm-fsvnkbtpt6-m-pln-dnbu-campus-sutra-original-imaetngyhr3gzcsp.jpeg?q=70,https://rukminim1.flixcart.com/image/312/312/j2c6du80/fabric/z/b/z/dc792-1073-drapes-original-imaegr5jbxexqamz.jpeg?q=70,https://rukminim1.flixcart.com/image/312/312/j2c6du80/fabric/y/6/h/dc792-994-drapes-original-imaegj8hfrz8yysq.jpeg?q=70
https://rukminim1.flixcart.com/image/312/312/t-shirt/n/7/e/fmts7793brick-red-flying-machine-m-original-imaepyymechk3drb.jpeg?q=70,https://rukminim1.flixcart.com/image/312/312/j2f19jk0/sari/k/6/3/1-free-anjani-jackpot1153-c-oomph-1-original-imaegtgnwrhzpfmg.jpeg?q=70,https://rukminim1.flixcart.com/image/312/312/sari/h/r/v/1-1-nstasselmulti1-vastrakala-original-imaehhz8vmmdgyau.jpeg?q=70,https://rukminim1.flixcart.com/image/312/312/j3hm5jk0/fabric/e/c/s/dm00255-anugrah-original-imaeuh6qxtbchyxf.jpeg?q=70,https://rukminim1.flixcart.com/image/312/312/fabric/v/g/n/dp0995-priyanshi-original-imaegj8htf6j4ykk.jpeg?q=70,https://rukminim1.flixcart.com/image/312/312/fabric/f/f/t/487d2004-saara-original-imaeqyupw45uvjtu.jpeg?q=70,https://rukminim1.flixcart.com/image/312/312/j29bi4w0/t-shirt/4/y/g/m-ss17prm-fsvnkbtpt6-m-pln-dnbu-campus-sutra-original-imaetngyhr3gzcsp.jpeg?q=70,https://rukminim1.flixcart.com/image/312/312/j2c6du80/fabric/y/6/h/dc792-994-drapes-original-imaegj8hfrz8yysq.jpeg?q=70,https://rukminim1.flixcart.com/image/312/312/j2c6du80/fabric/z/b/z/dc792-1073-drapes-original-imaegr5jbxexqamz.jpeg?q=70
https://rukminim1.flixcart.com/image/312/312/sari/h/r/v/1-1-nstasselmulti1-vastrakala-original-imaehhz8vmmdgyau.jpeg?q=70,https://rukminim1.flixcart.com/image/312/312/sari/h/p/x/free-bhagalpuri28-yetnik-original-imaepkyptxgmd6w2.jpeg?q=70,https://rukminim1.flixcart.com/image/312/312/sari/h/r/v/1-1-nstasselmulti1-vastrakala-original-imaehhz8vmmdgyau.jpeg?q=70,https://rukminim1.flixcart.com/image/312/312/j29bi4w0/t-shirt/4/y/g/m-ss17prm-fsvnkbtpt6-m-pln-dnbu-campus-sutra-original-imaetngyhr3gzcsp.jpeg?q=70,https://rukminim1.flixcart.com/image/312/312/fabric/v/g/n/dp0995-priyanshi-original-imaegj8htf6j4ykk.jpeg?q=70,https://rukminim1.flixcart.com/image/312/312/j2c6du80/fabric/z/b/z/dc792-1073-drapes-original-imaegr5jbxexqamz.jpeg?q=70,https://rukminim1.flixcart.com/image/312/312/j2f19jk0/sari/k/6/3/1-free-anjani-jackpot1153-c-oomph-1-original-imaegtgnwrhzpfmg.jpeg?q=70,https://rukminim1.flixcart.com/image/312/312/fabric/f/f/t/487d2004-saara-original-imaeqyupw45uvjtu.jpeg?q=70,https://rukminim1.flixcart.com/image/312/312/j3hm5jk0/fabric/e/c/s/dm00255-anugrah-original-imaeuh6qxtbchyxf.jpeg?q=70
https://rukminim1.flixcart.com/image/312/312/j2f19jk0/sari/k/6/3/1-free-anjani-jackpot1153-c-oomph-1-original-imaegtgnwrhzpfmg.jpeg?q=70,https://rukminim1.flixcart.com/image/312/312/t-shirt/n/7/e/fmts7793brick-red-flying-machine-m-original-imaepyymechk3drb.jpeg?q=70,https://rukminim1.flixcart.com/image/312/312/fabric/v/g/n/dp0995-priyanshi-original-imaegj8htf6j4ykk.jpeg?q=70,https://rukminim1.flixcart.com/image/312/312/j3hm5jk0/fabric/e/c/s/dm00255-anugrah-original-imaeuh6qxtbchyxf.jpeg?q=70,https://rukminim1.flixcart.com/image/312/312/sari/h/r/v/1-1-nstasselmulti1-vastrakala-original-imaehhz8vmmdgyau.jpeg?q=70,https://rukminim1.flixcart.com/image/312/312/fabric/f/f/t/487d2004-saara-original-imaeqyupw45uvjtu.jpeg?q=70,https://rukminim1.flixcart.com/image/312/312/j29bi4w0/t-shirt/4/y/g/m-ss17prm-fsvnkbtpt6-m-pln-dnbu-campus-sutra-original-imaetngyhr3gzcsp.jpeg?q=70,https://rukminim1.flixcart.com/image/312/312/j2c6du80/fabric/z/b/z/dc792-1073-drapes-original-imaegr5jbxexqamz.jpeg?q=70,https://rukminim1.flixcart.com/image/312/312/j2c6du80/fabric/y/6/h/dc792-994-drapes-original-imaegj8hfrz8yysq.jpeg?q=70
https://rukminim1.flixcart.com/image/312/312/t-shirt/n/7/e/fmts7793brick-red-flying-machine-m-original-imaepyymechk3drb.jpeg?q=70,https://rukminim1.flixcart.com/image/312/312/j2f19jk0/sari/k/6/3/1-free-anjani-jackpot1153-c-oomph-1-original-imaegtgnwrhzpfmg.jpeg?q=70,https://rukminim1.flixcart.com/image/312/312/sari/h/r/v/1-1-nstasselmulti1-vastrakala-original-imaehhz8vmmdgyau.jpeg?q=70,https://rukminim1.flixcart.com/image/312/312/j3hm5jk0/fabric/e/c/s/dm00255-anugrah-original-imaeuh6qxtbchyxf.jpeg?q=70,https://rukminim1.flixcart.com/image/312/312/fabric/v/g/n/dp0995-priyanshi-original-imaegj8htf6j4ykk.jpeg?q=70,https://rukminim1.flixcart.com/image/312/312/fabric/f/f/t/487d2004-saara-original-imaeqyupw45uvjtu.jpeg?q=70,https://rukminim1.flixcart.com/image/312/312/j29bi4w0/t-shirt/4/y/g/m-ss17prm-fsvnkbtpt6-m-pln-dnbu-campus-sutra-original-imaetngyhr3gzcsp.jpeg?q=70,https://rukminim1.flixcart.com/image/312/312/j2c6du80/fabric/y/6/h/dc792-994-drapes-original-imaegj8hfrz8yysq.jpeg?q=70,https://rukminim1.flixcart.com/image/312/312/j2c6du80/fabric/z/b/z/dc792-1073-drapes-original-imaegr5jbxexqamz.jpeg?q=70
https://rukminim1.flixcart.com/image/312/312/sari/h/r/v/1-1-nstasselmulti1-vastrakala-original-imaehhz8vmmdgyau.jpeg?q=70,https://rukminim1.flixcart.com/image/312/312/sari/h/p/x/free-bhagalpuri28-yetnik-original-imaepkyptxgmd6w2.jpeg?q=70,https://rukminim1.flixcart.com/image/312/312/sari/h/r/v/1-1-nstasselmulti1-vastrakala-original-imaehhz8vmmdgyau.jpeg?q=70,https://rukminim1.flixcart.com/image/312/312/j29bi4w0/t-shirt/4/y/g/m-ss17prm-fsvnkbtpt6-m-pln-dnbu-campus-sutra-original-imaetngyhr3gzcsp.jpeg?q=70,https://rukminim1.flixcart.com/image/312/312/fabric/v/g/n/dp0995-priyanshi-original-imaegj8htf6j4ykk.jpeg?q=70,https://rukminim1.flixcart.com/image/312/312/j2c6du80/fabric/z/b/z/dc792-1073-drapes-original-imaegr5jbxexqamz.jpeg?q=70,https://rukminim1.flixcart.com/image/312/312/j2f19jk0/sari/k/6/3/1-free-anjani-jackpot1153-c-oomph-1-original-imaegtgnwrhzpfmg.jpeg?q=70,https://rukminim1.flixcart.com/image/312/312/fabric/f/f/t/487d2004-saara-original-imaeqyupw45uvjtu.jpeg?q=70,https://rukminim1.flixcart.com/image/312/312/j3hm5jk0/fabric/e/c/s/dm00255-anugrah-original-imaeuh6qxtbchyxf.jpeg?q=70
https://rukminim1.flixcart.com/image/312/312/j2f19jk0/sari/k/6/3/1-free-anjani-jackpot1153-c-oomph-1-original-imaegtgnwrhzpfmg.jpeg?q=70,https://rukminim1.flixcart.com/image/312/312/t-shirt/n/7/e/fmts7793brick-red-flying-machine-m-original-imaepyymechk3drb.jpeg?q=70,https://rukminim1.flixcart.com/image/312/312/fabric/v/g/n/dp0995-priyanshi-original-imaegj8htf6j4ykk.jpeg?q=70,https://rukminim1.flixcart.com/image/312/312/j3hm5jk0/fabric/e/c/s/dm00255-anugrah-original-imaeuh6qxtbchyxf.jpeg?q=70,https://rukminim1.flixcart.com/image/312/312/sari/h/r/v/1-1-nstasselmulti1-vastrakala-original-imaehhz8vmmdgyau.jpeg?q=70,https://rukminim1.flixcart.com/image/312/312/fabric/f/f/t/487d2004-saara-original-imaeqyupw45uvjtu.jpeg?q=70,https://rukminim1.flixcart.com/image/312/312/j29bi4w0/t-shirt/4/y/g/m-ss17prm-fsvnkbtpt6-m-pln-dnbu-campus-sutra-original-imaetngyhr3gzcsp.jpeg?q=70,https://rukminim1.flixcart.com/image/312/312/j2c6du80/fabric/z/b/z/dc792-1073-drapes-original-imaegr5jbxexqamz.jpeg?q=70,https://rukminim1.flixcart.com/image/312/312/j2c6du80/fabric/y/6/h/dc792-994-drapes-original-imaegj8hfrz8yysq.jpeg?q=70
https://rukminim1.flixcart.com/image/312/312/t-shirt/n/7/e/fmts7793brick-red-flying-machine-m-original-imaepyymechk3drb.jpeg?q=70,https://rukminim1.flixcart.com/image/312/312/j2f19jk0/sari/k/6/3/1-free-anjani-jackpot1153-c-oomph-1-original-imaegtgnwrhzpfmg.jpeg?q=70,https://rukminim1.flixcart.com/image/312/312/sari/h/r/v/1-1-nstasselmulti1-vastrakala-original-imaehhz8vmmdgyau.jpeg?q=70,https://rukminim1.flixcart.com/image/312/312/j3hm5jk0/fabric/e/c/s/dm00255-anugrah-original-imaeuh6qxtbchyxf.jpeg?q=70,https://rukminim1.flixcart.com/image/312/312/fabric/v/g/n/dp0995-priyanshi-original-imaegj8htf6j4ykk.jpeg?q=70,https://rukminim1.flixcart.com/image/312/312/fabric/f/f/t/487d2004-saara-original-imaeqyupw45uvjtu.jpeg?q=70,https://rukminim1.flixcart.com/image/312/312/j29bi4w0/t-shirt/4/y/g/m-ss17prm-fsvnkbtpt6-m-pln-dnbu-campus-sutra-original-imaetngyhr3gzcsp.jpeg?q=70,https://rukminim1.flixcart.com/image/312/312/j2c6du80/fabric/y/6/h/dc792-994-drapes-original-imaegj8hfrz8yysq.jpeg?q=70,https://rukminim1.flixcart.com/image/312/312/j2c6du80/fabric/z/b/z/dc792-1073-drapes-original-imaegr5jbxexqamz.jpeg?q=70
https://rukminim1.flixcart.com/image/312/312/sari/h/r/v/1-1-nstasselmulti1-vastrakala-original-imaehhz8vmmdgyau.jpeg?q=70,https://rukminim1.flixcart.com/image/312/312/sari/h/p/x/free-bhagalpuri28-yetnik-original-imaepkyptxgmd6w2.jpeg?q=70,https://rukminim1.flixcart.com/image/312/312/sari/h/r/v/1-1-nstasselmulti1-vastrakala-original-imaehhz8vmmdgyau.jpeg?q=70,https://rukminim1.flixcart.com/image/312/312/j29bi4w0/t-shirt/4/y/g/m-ss17prm-fsvnkbtpt6-m-pln-dnbu-campus-sutra-original-imaetngyhr3gzcsp.jpeg?q=70,https://rukminim1.flixcart.com/image/312/312/fabric/v/g/n/dp0995-priyanshi-original-imaegj8htf6j4ykk.jpeg?q=70,https://rukminim1.flixcart.com/image/312/312/j2c6du80/fabric/z/b/z/dc792-1073-drapes-original-imaegr5jbxexqamz.jpeg?q=70,https://rukminim1.flixcart.com/image/312/312/j2f19jk0/sari/k/6/3/1-free-anjani-jackpot1153-c-oomph-1-original-imaegtgnwrhzpfmg.jpeg?q=70,https://rukminim1.flixcart.com/image/312/312/fabric/f/f/t/487d2004-saara-original-imaeqyupw45uvjtu.jpeg?q=70,https://rukminim1.flixcart.com/image/312/312/j3hm5jk0/fabric/e/c/s/dm00255-anugrah-original-imaeuh6qxtbchyxf.jpeg?q=70
https://rukminim1.flixcart.com/image/312/312/j2f19jk0/sari/k/6/3/1-free-anjani-jackpot1153-c-oomph-1-original-imaegtgnwrhzpfmg.jpeg?q=70,https://rukminim1.flixcart.com/image/312/312/t-shirt/n/7/e/fmts7793brick-red-flying-machine-m-original-imaepyymechk3drb.jpeg?q=70,https://rukminim1.flixcart.com/image/312/312/fabric/v/g/n/dp0995-priyanshi-original-imaegj8htf6j4ykk.jpeg?q=70,https://rukminim1.flixcart.com/image/312/312/j3hm5jk0/fabric/e/c/s/dm00255-anugrah-original-imaeuh6qxtbchyxf.jpeg?q=70,https://rukminim1.flixcart.com/image/312/312/sari/h/r/v/1-1-nstasselmulti1-vastrakala-original-imaehhz8vmmdgyau.jpeg?q=70,https://rukminim1.flixcart.com/image/312/312/fabric/f/f/t/487d2004-saara-original-imaeqyupw45uvjtu.jpeg?q=70,https://rukminim1.flixcart.com/image/312/312/j29bi4w0/t-shirt/4/y/g/m-ss17prm-fsvnkbtpt6-m-pln-dnbu-campus-sutra-original-imaetngyhr3gzcsp.jpeg?q=70,https://rukminim1.flixcart.com/image/312/312/j2c6du80/fabric/z/b/z/dc792-1073-drapes-original-imaegr5jbxexqamz.jpeg?q=70,https://rukminim1.flixcart.com/image/312/312/j2c6du80/fabric/y/6/h/dc792-994-drapes-original-imaegj8hfrz8yysq.jpeg?q=70
https://rukminim1.flixcart.com/image/312/312/t-shirt/n/7/e/fmts7793brick-red-flying-machine-m-original-imaepyymechk3drb.jpeg?q=70,https://rukminim1.flixcart.com/image/312/312/j2f19jk0/sari/k/6/3/1-free-anjani-jackpot1153-c-oomph-1-original-imaegtgnwrhzpfmg.jpeg?q=70,https://rukminim1.flixcart.com/image/312/312/sari/h/r/v/1-1-nstasselmulti1-vastrakala-original-imaehhz8vmmdgyau.jpeg?q=70,https://rukminim1.flixcart.com/image/312/312/j3hm5jk0/fabric/e/c/s/dm00255-anugrah-original-imaeuh6qxtbchyxf.jpeg?q=70,https://rukminim1.flixcart.com/image/312/312/fabric/v/g/n/dp0995-priyanshi-original-imaegj8htf6j4ykk.jpeg?q=70,https://rukminim1.flixcart.com/image/312/312/fabric/f/f/t/487d2004-saara-original-imaeqyupw45uvjtu.jpeg?q=70,https://rukminim1.flixcart.com/image/312/312/j29bi4w0/t-shirt/4/y/g/m-ss17prm-fsvnkbtpt6-m-pln-dnbu-campus-sutra-original-imaetngyhr3gzcsp.jpeg?q=70,https://rukminim1.flixcart.com/image/312/312/j2c6du80/fabric/y/6/h/dc792-994-drapes-original-imaegj8hfrz8yysq.jpeg?q=70,https://rukminim1.flixcart.com/image/312/312/j2c6du80/fabric/z/b/z/dc792-1073-drapes-original-imaegr5jbxexqamz.jpeg?q=70
https://rukminim1.flixcart.com/image/312/312/sari/h/r/v/1-1-nstasselmulti1-vastrakala-original-imaehhz8vmmdgyau.jpeg?q=70,https://rukminim1.flixcart.com/image/312/312/sari/h/p/x/free-bhagalpuri28-yetnik-original-imaepkyptxgmd6w2.jpeg?q=70,https://rukminim1.flixcart.com/image/312/312/sari/h/r/v/1-1-nstasselmulti1-vastrakala-original-imaehhz8vmmdgyau.jpeg?q=70,https://rukminim1.flixcart.com/image/312/312/j29bi4w0/t-shirt/4/y/g/m-ss17prm-fsvnkbtpt6-m-pln-dnbu-campus-sutra-original-imaetngyhr3gzcsp.jpeg?q=70,https://rukminim1.flixcart.com/image/312/312/fabric/v/g/n/dp0995-priyanshi-original-imaegj8htf6j4ykk.jpeg?q=70,https://rukminim1.flixcart.com/image/312/312/j2c6du80/fabric/z/b/z/dc792-1073-drapes-original-imaegr5jbxexqamz.jpeg?q=70,https://rukminim1.flixcart.com/image/312/312/j2f19jk0/sari/k/6/3/1-free-anjani-jackpot1153-c-oomph-1-original-imaegtgnwrhzpfmg.jpeg?q=70,https://rukminim1.flixcart.com/image/312/312/fabric/f/f/t/487d2004-saara-original-imaeqyupw45uvjtu.jpeg?q=70,https://rukminim1.flixcart.com/image/312/312/j3hm5jk0/fabric/e/c/s/dm00255-anugrah-original-imaeuh6qxtbchyxf.jpeg?q=70
https://rukminim1.flixcart.com/image/312/312/j2f19jk0/sari/k/6/3/1-free-anjani-jackpot1153-c-oomph-1-original-imaegtgnwrhzpfmg.jpeg?q=70,https://rukminim1.flixcart.com/image/312/312/t-shirt/n/7/e/fmts7793brick-red-flying-machine-m-original-imaepyymechk3drb.jpeg?q=70,https://rukminim1.flixcart.com/image/312/312/fabric/v/g/n/dp0995-priyanshi-original-imaegj8htf6j4ykk.jpeg?q=70,https://rukminim1.flixcart.com/image/312/312/j3hm5jk0/fabric/e/c/s/dm00255-anugrah-original-imaeuh6qxtbchyxf.jpeg?q=70,https://rukminim1.flixcart.com/image/312/312/sari/h/r/v/1-1-nstasselmulti1-vastrakala-original-imaehhz8vmmdgyau.jpeg?q=70,https://rukminim1.flixcart.com/image/312/312/fabric/f/f/t/487d2004-saara-original-imaeqyupw45uvjtu.jpeg?q=70,https://rukminim1.flixcart.com/image/312/312/j29bi4w0/t-shirt/4/y/g/m-ss17prm-fsvnkbtpt6-m-pln-dnbu-campus-sutra-original-imaetngyhr3gzcsp.jpeg?q=70,https://rukminim1.flixcart.com/image/312/312/j2c6du80/fabric/z/b/z/dc792-1073-drapes-original-imaegr5jbxexqamz.jpeg?q=70,https://rukminim1.flixcart.com/image/312/312/j2c6du80/fabric/y/6/h/dc792-994-drapes-original-imaegj8hfrz8yysq.jpeg?q=70
https://rukminim1.flixcart.com/image/312/312/t-shirt/n/7/e/fmts7793brick-red-flying-machine-m-original-imaepyymechk3drb.jpeg?q=70,https://rukminim1.flixcart.com/image/312/312/j2f19jk0/sari/k/6/3/1-free-anjani-jackpot1153-c-oomph-1-original-imaegtgnwrhzpfmg.jpeg?q=70,https://rukminim1.flixcart.com/image/312/312/sari/h/r/v/1-1-nstasselmulti1-vastrakala-original-imaehhz8vmmdgyau.jpeg?q=70,https://rukminim1.flixcart.com/image/312/312/j3hm5jk0/fabric/e/c/s/dm00255-anugrah-original-imaeuh6qxtbchyxf.jpeg?q=70,https://rukminim1.flixcart.com/image/312/312/fabric/v/g/n/dp0995-priyanshi-original-imaegj8htf6j4ykk.jpeg?q=70,https://rukminim1.flixcart.com/image/312/312/fabric/f/f/t/487d2004-saara-original-imaeqyupw45uvjtu.jpeg?q=70,https://rukminim1.flixcart.com/image/312/312/j29bi4w0/t-shirt/4/y/g/m-ss17prm-fsvnkbtpt6-m-pln-dnbu-campus-sutra-original-imaetngyhr3gzcsp.jpeg?q=70,https://rukminim1.flixcart.com/image/312/312/j2c6du80/fabric/y/6/h/dc792-994-drapes-original-imaegj8hfrz8yysq.jpeg?q=70,https://rukminim1.flixcart.com/image/312/312/j2c6du80/fabric/z/b/z/dc792-1073-drapes-original-imaegr5jbxexqamz.jpeg?q=70
