imageurl,imageurl
https://rukminim1.flixcart.com/image/312/312/sari/h/p/x/free-bhagalpuri28-yetnik-original-imaepkyptxgmd6w2.jpeg?q=70,https://rukminim1.flixcart.com/image/312/312/j0tvngw0/sari/u/5/b/1-free-gv-518-glam-villa-1-original-imaeqhdfhn3deuxe.jpeg?q=70
https://rukminim1.flixcart.com/image/312/312/sari/h/r/v/1-1-nstasselmulti1-vastrakala-original-imaehhz8vmmdgyau.jpeg?q=70,https://rukminim1.flixcart.com/image/312/312/sari/m/h/x/1-1-sh-1312-roopkala-silks-original-imaecrywhfuucykr.jpeg?q=70
https://rukminim1.flixcart.com/image/312/312/sari/z/c/r/1-free-peecaso5565-peecaso-1-original-imaeqj87hmv94p7z.jpeg?q=70,https://rukminim1.flixcart.com/image/312/312/sari/8/t/e/1-1-ac3016-3017-aashvi-creation-original-imaeecmtwgf4fgaf.jpeg?q=70
https://rukminim1.flixcart.com/image/312/312/j1v13m80/sari/z/t/e/1-free-combo2-6010-6021-oomph-1-original-imaehu5thbuxnhxj.jpeg?q=70,https://rukminim1.flixcart.com/image/312/312/j3lwh3k0/sari/d/7/k/1-free-zari-magenta-cs-cozee-shopping-1-original-imaeupgmwzcjajwv.jpeg?q=70
https://rukminim1.flixcart.com/image/312/312/sari/c/h/p/80-16-2942d-anand-sarees-original-imaeg8athyf7xfwz.jpeg?q=70,https://rukminim1.flixcart.com/image/312/312/j26gmfk0-1/sari/h/4/5/1-free-onf-197-elevate-women-1-original-imaekybbx9scfpmh.jpeg?q=70
https://rukminim1.flixcart.com/image/312/312/sari/d/m/v/1-1-bluecordnew-sargam-fashion-free-original-imaezyv6s8pk8m2f.jpeg?q=70,https://rukminim1.flixcart.com/image/312/312/sari/r/3/w/1-1-n-125-kjs-free-original-imaep3yhcmuusn32.jpeg?q=70
https://rukminim1.flixcart.com/image/312/312/sari/q/p/8/1-free-n188-nilesh-fab-1-original-imaez4b58cypzyzr.jpeg?q=70,https://rukminim1.flixcart.com/image/312/312/j1tlnrk0/sari/s/y/f/1-free-saree-peecaso-1-original-imaet6w3thmhxcdr.jpeg?q=70
https://rukminim1.flixcart.com/image/312/312/sari/b/z/q/1-1-peccasso-5528-saran-free-original-imaezhtgkjnr5rwa.jpeg?q=70,https://rukminim1.flixcart.com/image/312/312/sari/g/q/7/1-1-1700gs-heena-original-imaefy3d9mq6gyht.jpeg?q=70
https://rukminim1.flixcart.com/image/312/312/j1wgjgw0/sari/x/z/n/1-free-taanshilotus10-taanshi-1-original-imaet5kygbrwmazh.jpeg?q=70,https://rukminim1.flixcart.com/image/312/312/sari/y/m/t/1-1-ishinsb-v-8030-ishin-original-imaemng2msecr8xq.jpeg?q=70
https://rukminim1.flixcart.com/image/312/312/j27w2a80/sari/g/f/y/1-free-sl-529-sgm-1-original-imaeqhdeqhkhkmqp.jpeg?q=70,https://rukminim1.flixcart.com/image/312/312/sari/e/k/8/1-free-enst11g1-e-vastram-1-original-imaepps7udxzp73g.jpeg?q=70
https://rukminim1.flixcart.com/image/312/312/sari/e/k/8/1-free-enst11g1-e-vastram-1-original-imaepps7udxzp73g.jpeg?q=70,https://rukminim1.flixcart.com/image/312/312/j12gakw0/sari/g/w/c/1-free-sl-769-sgm-1-original-imaeqhdespkbdhxh.jpeg?q=70
https://rukminim1.flixcart.com/image/312/312/j12gakw0/sari/g/w/c/1-free-sl-769-sgm-1-original-imaeqhdespkbdhxh.jpeg?q=70,https://rukminim1.flixcart.com/image/312/312/sari/t/z/c/1-1-ps136-315-parishi-fashion-original-imaeh8zbquuyqby9.jpeg?q=70
https://rukminim1.flixcart.com/image/312/312/j1tlnrk0/sari/s/y/f/1-free-saree-peecaso-1-original-imaet6w3thmhxcdr.jpeg?q=70,
https://rukminim1.flixcart.com/image/312/312/sari/g/q/7/1-1-1700gs-heena-original-imaefy3d9mq6gyht.jpeg?q=70,https://rukminim1.flixcart.com/image/312/312/sari/h/p/x/free-bhagalpuri28-yetnik-original-imaepkyptxgmd6w2.jpeg?q=70
https://rukminim1.flixcart.com/image/312/312/sari/y/m/t/1-1-ishinsb-v-8030-ishin-original-imaemng2msecr8xq.jpeg?q=70,https://rukminim1.flixcart.com/image/312/312/sari/h/r/v/1-1-nstasselmulti1-vastrakala-original-imaehhz8vmmdgyau.jpeg?q=70
https://rukminim1.flixcart.com/image/312/312/sari/e/k/8/1-free-enst11g1-e-vastram-1-original-imaepps7udxzp73g.jpeg?q=70,https://rukminim1.flixcart.com/image/312/312/sari/z/c/r/1-free-peecaso5565-peecaso-1-original-imaeqj87hmv94p7z.jpeg?q=70
https://rukminim1.flixcart.com/image/312/312/j12gakw0/sari/g/w/c/1-free-sl-769-sgm-1-original-imaeqhdespkbdhxh.jpeg?q=70,https://rukminim1.flixcart.com/image/312/312/j1v13m80/sari/z/t/e/1-free-combo2-6010-6021-oomph-1-original-imaehu5thbuxnhxj.jpeg?q=70
https://rukminim1.flixcart.com/image/312/312/sari/t/z/c/1-1-ps136-315-parishi-fashion-original-imaeh8zbquuyqby9.jpeg?q=70,https://rukminim1.flixcart.com/image/312/312/sari/c/h/p/80-16-2942d-anand-sarees-original-imaeg8athyf7xfwz.jpeg?q=70
https://rukminim1.flixcart.com/image/312/312/sari/b/z/q/1-1-peccasso-5528-saran-free-original-imaezhtgkjnr5rwa.jpeg?q=70,https://rukminim1.flixcart.com/image/312/312/sari/d/m/v/1-1-bluecordnew-sargam-fashion-free-original-imaezyv6s8pk8m2f.jpeg?q=70
https://rukminim1.flixcart.com/image/312/312/j1wgjgw0/sari/x/z/n/1-free-taanshilotus10-taanshi-1-original-imaet5kygbrwmazh.jpeg?q=70,
https://rukminim1.flixcart.com/image/312/312/j27w2a80/sari/g/f/y/1-free-sl-529-sgm-1-original-imaeqhdeqhkhkmqp.jpeg?q=70,https://rukminim1.flixcart.com/image/312/312/sari/h/p/x/free-bhagalpuri28-yetnik-original-imaepkyptxgmd6w2.jpeg?q=70
https://rukminim1.flixcart.com/image/312/312/sari/e/k/8/1-free-enst11g1-e-vastram-1-original-imaepps7udxzp73g.jpeg?q=70,https://rukminim1.flixcart.com/image/312/312/sari/h/r/v/1-1-nstasselmulti1-vastrakala-original-imaehhz8vmmdgyau.jpeg?q=70
https://rukminim1.flixcart.com/image/312/312/j12gakw0/sari/g/w/c/1-free-sl-769-sgm-1-original-imaeqhdespkbdhxh.jpeg?q=70,https://rukminim1.flixcart.com/image/312/312/sari/z/c/r/1-free-peecaso5565-peecaso-1-original-imaeqj87hmv94p7z.jpeg?q=70
https://rukminim1.flixcart.com/image/312/312/j1tlnrk0/sari/s/y/f/1-free-saree-peecaso-1-original-imaet6w3thmhxcdr.jpeg?q=70,https://rukminim1.flixcart.com/image/312/312/j1v13m80/sari/z/t/e/1-free-combo2-6010-6021-oomph-1-original-imaehu5thbuxnhxj.jpeg?q=70
